{
  "prepare_queue": {
    "installed": [],
    "uninstalled": []
  },
  "config_munge": {
    "files": {}
  },
  "installed_plugins": {
    "cordova-plugin-whitelist": {
      "PACKAGE_NAME": "org.bryan.garconapp"
    },
    "phonegap-plugin-barcodescanner": {
      "PACKAGE_NAME": "org.sergiolopes.garconapp"
    },
    "cordova-plugin-statusbar": {
      "PACKAGE_NAME": "org.sergiolopes.garconapp"
    }
  },
  "dependent_plugins": {}
}
